blessings==1.6
bpython==0.16
certifi==2017.7.27.1
chardet==3.0.4
curtsies==0.2.11
defusedxml==0.5.0
Django==1.11.4
django-filter==1.0.4
djangorestframework==3.6.3
djangorestframework-xml==1.3.0
greenlet==0.4.12
idna==2.5
Markdown==2.6.8
Pygments==2.2.0
pytz==2017.2
requests==2.18.3
six==1.10.0
SoftEtherPy==1.2
urllib3==1.22
wcwidth==0.1.7
